{
  "name": "GarbageCollector API Docs",
  "version": "0.1.0",
  "description": "GarbageCollector API Docs",
  "title": "GarbageCollector API Docs",
  "url": "https://garbage.mg.od.ua",
  "sampleUrl": false,
  "apidoc": "0.2.0",
  "generator": {
    "name": "apidoc",
    "time": "2017-06-14T08:49:59.283Z",
    "url": "http://apidocjs.com",
    "version": "0.11.0"
  }
}